{
  "hosting": {
    "public": "public",
    "ignore": [
      "firebase.json",
      "**/.*",
      "**/node_modules/**"
    ],
    "redirects": [
      {
        "source" : "/",
        "destination" : "https://bitbucket.org/mlopatkin/bus-schedule/overview",
        "type" : 301
      }
    ]
  }
}
